%YAML 1.1
%TAG !u! tag:unity3d.com,2011:
--- !u!114 &11400000
MonoBehaviour:
  m_ObjectHideFlags: 0
  m_PrefabParentObject: {fileID: 0}
  m_PrefabInternal: {fileID: 0}
  m_GameObject: {fileID: 0}
  m_Enabled: 1
  m_EditorHideFlags: 0
  m_Script: {fileID: 11500000, guid: dcb8792a633d83f4f8f6885545aa7817, type: 3}
  m_Name: BallLogo
  m_EditorClassIdentifier: 
  type: 0
  instanced: 0
  forceForward: 0
  priority: 0
  transparencyType: 0
  cutoff: 0.2
  tiling: {x: 0, y: 0}
  offset: {x: 0, y: 0}
  maskMethod: 0
  masks: 00000000
  projectionLimit: 80
  _Cutoff: 78
  _TilingOffset: 439
  _MaskBase: 440
  _MaskLayers: 441
  albedo:
    texture: {fileID: 2800000, guid: 04bb89962157512489ce9aa9e63c78d0, type: 3}
    color: {r: 0.5, g: 0.5, b: 0.5, a: 1}
    _MainTex: 8
    _Color: 84
